


ARM Macro Assembler    Page 1 


    1 00000000         ;******************** (C) COPYRIGHT 2014 STMicroelectron
                       ics ********************
    2 00000000         ;* File Name          : startup_stm32f030.s
    3 00000000         ;* Author             : MCD Application Team
    4 00000000         ;* Version            : V1.5.0
    5 00000000         ;* Date               : 05-December-2014
    6 00000000         ;* Description        : STM32F030 devices vector table f
                       or MDK-ARM toolchain.
    7 00000000         ;*                      This module performs:
    8 00000000         ;*                      - Set the initial SP
    9 00000000         ;*                      - Set the initial PC == Reset_Ha
                       ndler
   10 00000000         ;*                      - Set the vector table entries w
                       ith the exceptions ISR address
   11 00000000         ;*                      - Configure the system clock
   12 00000000         ;*                      - Branches to __main in the C li
                       brary (which eventually
   13 00000000         ;*                        calls main()).
   14 00000000         ;*                      After Reset the CortexM0 process
                       or is in Thread mode,
   15 00000000         ;*                      priority is Privileged, and the 
                       Stack is set to Main.
   16 00000000         ;* <<< Use Configuration Wizard in Context Menu >>>   
   17 00000000         ;*******************************************************
                       ************************
   18 00000000         ;  @attention
   19 00000000         ; 
   20 00000000         ;  Licensed under MCD-ST Liberty SW License Agreement V2
                       , (the "License");
   21 00000000         ;  You may not use this file except in compliance with t
                       he License.
   22 00000000         ;  You may obtain a copy of the License at:
   23 00000000         ; 
   24 00000000         ;         http://www.st.com/software_license_agreement_l
                       iberty_v2
   25 00000000         ; 
   26 00000000         ;  Unless required by applicable law or agreed to in wri
                       ting, software 
   27 00000000         ;  distributed under the License is distributed on an "A
                       S IS" BASIS, 
   28 00000000         ;  WITHOUT WARRANTIES OR CONDITIONS OF ANY KIND, either 
                       express or implied.
   29 00000000         ;  See the License for the specific language governing p
                       ermissions and
   30 00000000         ;  limitations under the License.
   31 00000000         ; 
   32 00000000         ;*******************************************************
                       ************************
   33 00000000         ;
   34 00000000         ; Amount of memory (in bytes) allocated for Stack
   35 00000000         ; Tailor this value to your application needs
   36 00000000         ; <h> Stack Configuration
   37 00000000         ;   <o> Stack Size (in Bytes) <0x0-0xFFFFFFFF:8>
   38 00000000         ; </h>
   39 00000000         
   40 00000000 00000600 
                       Stack_Size
                               EQU              0x00000600
   41 00000000         



ARM Macro Assembler    Page 2 


   42 00000000                 AREA             STACK, NOINIT, READWRITE, ALIGN
=3
   43 00000000         Stack_Mem
                               SPACE            Stack_Size
   44 00000600         __initial_sp
   45 00000600         
   46 00000600         
   47 00000600         ; <h> Heap Configuration
   48 00000600         ;   <o>  Heap Size (in Bytes) <0x0-0xFFFFFFFF:8>
   49 00000600         ; </h>
   50 00000600         
   51 00000600 00000400 
                       Heap_Size
                               EQU              0x00000400
   52 00000600         
   53 00000600                 AREA             HEAP, NOINIT, READWRITE, ALIGN=
3
   54 00000000         __heap_base
   55 00000000         Heap_Mem
                               SPACE            Heap_Size
   56 00000400         __heap_limit
   57 00000400         
   58 00000400                 PRESERVE8
   59 00000400                 THUMB
   60 00000400         
   61 00000400         
   62 00000400         ; Vector Table Mapped to Address 0 at Reset
   63 00000400                 AREA             RESET, DATA, READONLY
   64 00000000                 EXPORT           __Vectors
   65 00000000                 EXPORT           __Vectors_End
   66 00000000                 EXPORT           __Vectors_Size
   67 00000000         
   68 00000000 00000000 
                       __Vectors
                               DCD              __initial_sp ; Top of Stack
   69 00000004 00000000        DCD              Reset_Handler ; Reset Handler
   70 00000008 00000000        DCD              NMI_Handler ; NMI Handler
   71 0000000C 00000000        DCD              HardFault_Handler ; Hard Fault 
                                                            Handler
   72 00000010 00000000        DCD              0           ; Reserved
   73 00000014 00000000        DCD              0           ; Reserved
   74 00000018 00000000        DCD              0           ; Reserved
   75 0000001C 00000000        DCD              0           ; Reserved
   76 00000020 00000000        DCD              0           ; Reserved
   77 00000024 00000000        DCD              0           ; Reserved
   78 00000028 00000000        DCD              0           ; Reserved
   79 0000002C 00000000        DCD              SVC_Handler ; SVCall Handler
   80 00000030 00000000        DCD              0           ; Reserved
   81 00000034 00000000        DCD              0           ; Reserved
   82 00000038 00000000        DCD              PendSV_Handler ; PendSV Handler
                                                            
   83 0000003C 00000000        DCD              SysTick_Handler 
                                                            ; SysTick Handler
   84 00000040         
   85 00000040         ; External Interrupts
   86 00000040 00000000        DCD              WWDG_IRQHandler 
                                                            ; Window Watchdog
   87 00000044 00000000        DCD              0           ; Reserved
   88 00000048 00000000        DCD              RTC_IRQHandler ; RTC through EX



ARM Macro Assembler    Page 3 


                                                            TI Line
   89 0000004C 00000000        DCD              FLASH_IRQHandler ; FLASH
   90 00000050 00000000        DCD              RCC_IRQHandler ; RCC
   91 00000054 00000000        DCD              EXTI0_1_IRQHandler 
                                                            ; EXTI Line 0 and 1
                                                            
   92 00000058 00000000        DCD              EXTI2_3_IRQHandler 
                                                            ; EXTI Line 2 and 3
                                                            
   93 0000005C 00000000        DCD              EXTI4_15_IRQHandler 
                                                            ; EXTI Line 4 to 15
                                                            
   94 00000060 00000000        DCD              0           ; Reserved
   95 00000064 00000000        DCD              DMA1_Channel1_IRQHandler 
                                                            ; DMA1 Channel 1
   96 00000068 00000000        DCD              DMA1_Channel2_3_IRQHandler ; DM
                                                            A1 Channel 2 and Ch
                                                            annel 3
   97 0000006C 00000000        DCD              DMA1_Channel4_5_IRQHandler ; DM
                                                            A1 Channel 4 and Ch
                                                            annel 5
   98 00000070 00000000        DCD              ADC1_IRQHandler ; ADC1 
   99 00000074 00000000        DCD              TIM1_BRK_UP_TRG_COM_IRQHandler 
                                                            ; TIM1 Break, Updat
                                                            e, Trigger and Comm
                                                            utation
  100 00000078 00000000        DCD              TIM1_CC_IRQHandler ; TIM1 Captu
                                                            re Compare
  101 0000007C 00000000        DCD              0           ; Reserved
  102 00000080 00000000        DCD              TIM3_IRQHandler ; TIM3
  103 00000084 00000000        DCD              0           ; Reserved
  104 00000088 00000000        DCD              0           ; Reserved
  105 0000008C 00000000        DCD              TIM14_IRQHandler ; TIM14
  106 00000090 00000000        DCD              TIM15_IRQHandler ; TIM15
  107 00000094 00000000        DCD              TIM16_IRQHandler ; TIM16
  108 00000098 00000000        DCD              TIM17_IRQHandler ; TIM17
  109 0000009C 00000000        DCD              I2C1_IRQHandler ; I2C1
  110 000000A0 00000000        DCD              I2C2_IRQHandler ; I2C2
  111 000000A4 00000000        DCD              SPI1_IRQHandler ; SPI1
  112 000000A8 00000000        DCD              SPI2_IRQHandler ; SPI2
  113 000000AC 00000000        DCD              USART1_IRQHandler ; USART1
  114 000000B0 00000000        DCD              USART2_IRQHandler ; USART2
  115 000000B4         
  116 000000B4         __Vectors_End
  117 000000B4         
  118 000000B4 000000B4 
                       __Vectors_Size
                               EQU              __Vectors_End - __Vectors
  119 000000B4         
  120 000000B4                 AREA             |.text|, CODE, READONLY
  121 00000000         
  122 00000000         ; Reset handler routine
  123 00000000         Reset_Handler
                               PROC
  124 00000000                 EXPORT           Reset_Handler                 [
WEAK]
  125 00000000                 IMPORT           __main
  126 00000000                 IMPORT           SystemInit
  127 00000000         



ARM Macro Assembler    Page 4 


  128 00000000         
  129 00000000         
  130 00000000 480F            LDR              R0, =__initial_sp ; set stack p
                                                            ointer 
  131 00000002 F380 8808       MSR              MSP, R0
  132 00000006         
  133 00000006         ;;Check if boot space corresponds to test memory 
  134 00000006         
  135 00000006 480F            LDR              R0,=0x00000004
  136 00000008 6801            LDR              R1, [R0]
  137 0000000A 0E09            LSRS             R1, R1, #24
  138 0000000C 4A0E            LDR              R2,=0x1F
  139 0000000E 4291            CMP              R1, R2
  140 00000010         
  141 00000010 D105            BNE              ApplicationStart
  142 00000012         
  143 00000012         ;; SYSCFG clock enable    
  144 00000012         
  145 00000012 480E            LDR              R0,=0x40021018
  146 00000014 490E            LDR              R1,=0x00000001
  147 00000016 6001            STR              R1, [R0]
  148 00000018         
  149 00000018         ;; Set CFGR1 register with flash memory remap at address
                        0
  150 00000018         
  151 00000018 480E            LDR              R0,=0x40010000
  152 0000001A 490F            LDR              R1,=0x00000000
  153 0000001C 6001            STR              R1, [R0]
  154 0000001E         
  155 0000001E         ApplicationStart
  156 0000001E 480F            LDR              R0, =SystemInit
  157 00000020 4780            BLX              R0
  158 00000022 480F            LDR              R0, =__main
  159 00000024 4700            BX               R0
  160 00000026                 ENDP
  161 00000026         
  162 00000026         ; Dummy Exception Handlers (infinite loops which can be 
                       modified)
  163 00000026         
  164 00000026         NMI_Handler
                               PROC
  165 00000026                 EXPORT           NMI_Handler                    
[WEAK]
  166 00000026 E7FE            B                .
  167 00000028                 ENDP
  169 00000028         HardFault_Handler
                               PROC
  170 00000028                 EXPORT           HardFault_Handler              
[WEAK]
  171 00000028 E7FE            B                .
  172 0000002A                 ENDP
  173 0000002A         SVC_Handler
                               PROC
  174 0000002A                 EXPORT           SVC_Handler                    
[WEAK]
  175 0000002A E7FE            B                .
  176 0000002C                 ENDP
  177 0000002C         PendSV_Handler
                               PROC



ARM Macro Assembler    Page 5 


  178 0000002C                 EXPORT           PendSV_Handler                 
[WEAK]
  179 0000002C E7FE            B                .
  180 0000002E                 ENDP
  181 0000002E         SysTick_Handler
                               PROC
  182 0000002E                 EXPORT           SysTick_Handler                
[WEAK]
  183 0000002E E7FE            B                .
  184 00000030                 ENDP
  185 00000030         
  186 00000030         Default_Handler
                               PROC
  187 00000030         
  188 00000030                 EXPORT           WWDG_IRQHandler                
[WEAK]
  189 00000030                 EXPORT           RTC_IRQHandler                 
[WEAK]
  190 00000030                 EXPORT           FLASH_IRQHandler               
[WEAK]
  191 00000030                 EXPORT           RCC_IRQHandler                 
[WEAK]
  192 00000030                 EXPORT           EXTI0_1_IRQHandler             
[WEAK]
  193 00000030                 EXPORT           EXTI2_3_IRQHandler             
[WEAK]
  194 00000030                 EXPORT           EXTI4_15_IRQHandler            
[WEAK]
  195 00000030                 EXPORT           DMA1_Channel1_IRQHandler       
[WEAK]
  196 00000030                 EXPORT           DMA1_Channel2_3_IRQHandler     
[WEAK]
  197 00000030                 EXPORT           DMA1_Channel4_5_IRQHandler     
[WEAK]
  198 00000030                 EXPORT           ADC1_IRQHandler                
[WEAK]
  199 00000030                 EXPORT           TIM1_BRK_UP_TRG_COM_IRQHandler 
[WEAK]
  200 00000030                 EXPORT           TIM1_CC_IRQHandler             
[WEAK]
  201 00000030                 EXPORT           TIM3_IRQHandler                
[WEAK]
  202 00000030                 EXPORT           TIM14_IRQHandler               
[WEAK]
  203 00000030                 EXPORT           TIM15_IRQHandler               
[WEAK]
  204 00000030                 EXPORT           TIM16_IRQHandler               
[WEAK]
  205 00000030                 EXPORT           TIM17_IRQHandler               
[WEAK]
  206 00000030                 EXPORT           I2C1_IRQHandler                
[WEAK]
  207 00000030                 EXPORT           I2C2_IRQHandler                
[WEAK]
  208 00000030                 EXPORT           SPI1_IRQHandler                
[WEAK]
  209 00000030                 EXPORT           SPI2_IRQHandler                
[WEAK]
  210 00000030                 EXPORT           USART1_IRQHandler              



ARM Macro Assembler    Page 6 


[WEAK]
  211 00000030                 EXPORT           USART2_IRQHandler              
[WEAK]
  212 00000030         
  213 00000030         
  214 00000030         WWDG_IRQHandler
  215 00000030         RTC_IRQHandler
  216 00000030         FLASH_IRQHandler
  217 00000030         RCC_IRQHandler
  218 00000030         EXTI0_1_IRQHandler
  219 00000030         EXTI2_3_IRQHandler
  220 00000030         EXTI4_15_IRQHandler
  221 00000030         DMA1_Channel1_IRQHandler
  222 00000030         DMA1_Channel2_3_IRQHandler
  223 00000030         DMA1_Channel4_5_IRQHandler
  224 00000030         ADC1_IRQHandler
  225 00000030         TIM1_BRK_UP_TRG_COM_IRQHandler
  226 00000030         TIM1_CC_IRQHandler
  227 00000030         TIM3_IRQHandler
  228 00000030         TIM14_IRQHandler
  229 00000030         TIM15_IRQHandler
  230 00000030         TIM16_IRQHandler
  231 00000030         TIM17_IRQHandler
  232 00000030         I2C1_IRQHandler
  233 00000030         I2C2_IRQHandler
  234 00000030         SPI1_IRQHandler
  235 00000030         SPI2_IRQHandler
  236 00000030         USART1_IRQHandler
  237 00000030         USART2_IRQHandler
  238 00000030         
  239 00000030 E7FE            B                .
  240 00000032         
  241 00000032                 ENDP
  242 00000032         
  243 00000032 00 00           ALIGN
  244 00000034         
  245 00000034         ;*******************************************************
                       ************************
  246 00000034         ; User Stack and Heap initialization
  247 00000034         ;*******************************************************
                       ************************
  248 00000034                 IF               :DEF:__MICROLIB
  255 00000034         
  256 00000034                 IMPORT           __use_two_region_memory
  257 00000034                 EXPORT           __user_initial_stackheap
  258 00000034         
  259 00000034         __user_initial_stackheap
  260 00000034         
  261 00000034 480B            LDR              R0, =  Heap_Mem
  262 00000036 490C            LDR              R1, =(Stack_Mem + Stack_Size)
  263 00000038 4A0C            LDR              R2, = (Heap_Mem +  Heap_Size)
  264 0000003A 4B0D            LDR              R3, = Stack_Mem
  265 0000003C 4770            BX               LR
  266 0000003E         
  267 0000003E 00 00           ALIGN
  268 00000040         
  269 00000040                 ENDIF
  270 00000040         
  271 00000040                 END



ARM Macro Assembler    Page 7 


              00000000 
              00000004 
              0000001F 
              40021018 
              00000001 
              40010000 
              00000000 
              00000000 
              00000000 
              00000000 
              00000600 
              00000400 
              00000000 
Command Line: --debug --xref --diag_suppress=9931 --cpu=Cortex-M0 --apcs=interw
ork --depend=.\objects\startup_stm32f030.d -o.\objects\startup_stm32f030.o -IC:
\Keil_v5\ARM\RV31\INC -IC:\Keil_v5\ARM\CMSIS\Include -IC:\Keil_v5\ARM\Inc\ST\ST
M32F0xx --predefine="__EVAL SETA 1" --predefine="__UVISION_VERSION SETA 514" --
list=.\listings\startup_stm32f030.lst inc\startup_stm32f030.s



ARM Macro Assembler    Page 1 Alphabetic symbol ordering
Relocatable symbols

STACK 00000000

Symbol: STACK
   Definitions
      At line 42 in file inc\startup_stm32f030.s
   Uses
      None
Comment: STACK unused
Stack_Mem 00000000

Symbol: Stack_Mem
   Definitions
      At line 43 in file inc\startup_stm32f030.s
   Uses
      At line 262 in file inc\startup_stm32f030.s
      At line 264 in file inc\startup_stm32f030.s

__initial_sp 00000600

Symbol: __initial_sp
   Definitions
      At line 44 in file inc\startup_stm32f030.s
   Uses
      At line 68 in file inc\startup_stm32f030.s
      At line 130 in file inc\startup_stm32f030.s

3 symbols



ARM Macro Assembler    Page 1 Alphabetic symbol ordering
Relocatable symbols

HEAP 00000000

Symbol: HEAP
   Definitions
      At line 53 in file inc\startup_stm32f030.s
   Uses
      None
Comment: HEAP unused
Heap_Mem 00000000

Symbol: Heap_Mem
   Definitions
      At line 55 in file inc\startup_stm32f030.s
   Uses
      At line 261 in file inc\startup_stm32f030.s
      At line 263 in file inc\startup_stm32f030.s

__heap_base 00000000

Symbol: __heap_base
   Definitions
      At line 54 in file inc\startup_stm32f030.s
   Uses
      None
Comment: __heap_base unused
__heap_limit 00000400

Symbol: __heap_limit
   Definitions
      At line 56 in file inc\startup_stm32f030.s
   Uses
      None
Comment: __heap_limit unused
4 symbols



ARM Macro Assembler    Page 1 Alphabetic symbol ordering
Relocatable symbols

RESET 00000000

Symbol: RESET
   Definitions
      At line 63 in file inc\startup_stm32f030.s
   Uses
      None
Comment: RESET unused
__Vectors 00000000

Symbol: __Vectors
   Definitions
      At line 68 in file inc\startup_stm32f030.s
   Uses
      At line 64 in file inc\startup_stm32f030.s
      At line 118 in file inc\startup_stm32f030.s

__Vectors_End 000000B4

Symbol: __Vectors_End
   Definitions
      At line 116 in file inc\startup_stm32f030.s
   Uses
      At line 65 in file inc\startup_stm32f030.s
      At line 118 in file inc\startup_stm32f030.s

3 symbols



ARM Macro Assembler    Page 1 Alphabetic symbol ordering
Relocatable symbols

.text 00000000

Symbol: .text
   Definitions
      At line 120 in file inc\startup_stm32f030.s
   Uses
      None
Comment: .text unused
ADC1_IRQHandler 00000030

Symbol: ADC1_IRQHandler
   Definitions
      At line 224 in file inc\startup_stm32f030.s
   Uses
      At line 98 in file inc\startup_stm32f030.s
      At line 198 in file inc\startup_stm32f030.s

ApplicationStart 0000001E

Symbol: ApplicationStart
   Definitions
      At line 155 in file inc\startup_stm32f030.s
   Uses
      At line 141 in file inc\startup_stm32f030.s
Comment: ApplicationStart used once
DMA1_Channel1_IRQHandler 00000030

Symbol: DMA1_Channel1_IRQHandler
   Definitions
      At line 221 in file inc\startup_stm32f030.s
   Uses
      At line 95 in file inc\startup_stm32f030.s
      At line 195 in file inc\startup_stm32f030.s

DMA1_Channel2_3_IRQHandler 00000030

Symbol: DMA1_Channel2_3_IRQHandler
   Definitions
      At line 222 in file inc\startup_stm32f030.s
   Uses
      At line 96 in file inc\startup_stm32f030.s
      At line 196 in file inc\startup_stm32f030.s

DMA1_Channel4_5_IRQHandler 00000030

Symbol: DMA1_Channel4_5_IRQHandler
   Definitions
      At line 223 in file inc\startup_stm32f030.s
   Uses
      At line 97 in file inc\startup_stm32f030.s
      At line 197 in file inc\startup_stm32f030.s

Default_Handler 00000030

Symbol: Default_Handler
   Definitions
      At line 186 in file inc\startup_stm32f030.s
   Uses
      None



ARM Macro Assembler    Page 2 Alphabetic symbol ordering
Relocatable symbols

Comment: Default_Handler unused
EXTI0_1_IRQHandler 00000030

Symbol: EXTI0_1_IRQHandler
   Definitions
      At line 218 in file inc\startup_stm32f030.s
   Uses
      At line 91 in file inc\startup_stm32f030.s
      At line 192 in file inc\startup_stm32f030.s

EXTI2_3_IRQHandler 00000030

Symbol: EXTI2_3_IRQHandler
   Definitions
      At line 219 in file inc\startup_stm32f030.s
   Uses
      At line 92 in file inc\startup_stm32f030.s
      At line 193 in file inc\startup_stm32f030.s

EXTI4_15_IRQHandler 00000030

Symbol: EXTI4_15_IRQHandler
   Definitions
      At line 220 in file inc\startup_stm32f030.s
   Uses
      At line 93 in file inc\startup_stm32f030.s
      At line 194 in file inc\startup_stm32f030.s

FLASH_IRQHandler 00000030

Symbol: FLASH_IRQHandler
   Definitions
      At line 216 in file inc\startup_stm32f030.s
   Uses
      At line 89 in file inc\startup_stm32f030.s
      At line 190 in file inc\startup_stm32f030.s

HardFault_Handler 00000028

Symbol: HardFault_Handler
   Definitions
      At line 169 in file inc\startup_stm32f030.s
   Uses
      At line 71 in file inc\startup_stm32f030.s
      At line 170 in file inc\startup_stm32f030.s

I2C1_IRQHandler 00000030

Symbol: I2C1_IRQHandler
   Definitions
      At line 232 in file inc\startup_stm32f030.s
   Uses
      At line 109 in file inc\startup_stm32f030.s
      At line 206 in file inc\startup_stm32f030.s

I2C2_IRQHandler 00000030

Symbol: I2C2_IRQHandler
   Definitions



ARM Macro Assembler    Page 3 Alphabetic symbol ordering
Relocatable symbols

      At line 233 in file inc\startup_stm32f030.s
   Uses
      At line 110 in file inc\startup_stm32f030.s
      At line 207 in file inc\startup_stm32f030.s

NMI_Handler 00000026

Symbol: NMI_Handler
   Definitions
      At line 164 in file inc\startup_stm32f030.s
   Uses
      At line 70 in file inc\startup_stm32f030.s
      At line 165 in file inc\startup_stm32f030.s

PendSV_Handler 0000002C

Symbol: PendSV_Handler
   Definitions
      At line 177 in file inc\startup_stm32f030.s
   Uses
      At line 82 in file inc\startup_stm32f030.s
      At line 178 in file inc\startup_stm32f030.s

RCC_IRQHandler 00000030

Symbol: RCC_IRQHandler
   Definitions
      At line 217 in file inc\startup_stm32f030.s
   Uses
      At line 90 in file inc\startup_stm32f030.s
      At line 191 in file inc\startup_stm32f030.s

RTC_IRQHandler 00000030

Symbol: RTC_IRQHandler
   Definitions
      At line 215 in file inc\startup_stm32f030.s
   Uses
      At line 88 in file inc\startup_stm32f030.s
      At line 189 in file inc\startup_stm32f030.s

Reset_Handler 00000000

Symbol: Reset_Handler
   Definitions
      At line 123 in file inc\startup_stm32f030.s
   Uses
      At line 69 in file inc\startup_stm32f030.s
      At line 124 in file inc\startup_stm32f030.s

SPI1_IRQHandler 00000030

Symbol: SPI1_IRQHandler
   Definitions
      At line 234 in file inc\startup_stm32f030.s
   Uses
      At line 111 in file inc\startup_stm32f030.s
      At line 208 in file inc\startup_stm32f030.s




ARM Macro Assembler    Page 4 Alphabetic symbol ordering
Relocatable symbols

SPI2_IRQHandler 00000030

Symbol: SPI2_IRQHandler
   Definitions
      At line 235 in file inc\startup_stm32f030.s
   Uses
      At line 112 in file inc\startup_stm32f030.s
      At line 209 in file inc\startup_stm32f030.s

SVC_Handler 0000002A

Symbol: SVC_Handler
   Definitions
      At line 173 in file inc\startup_stm32f030.s
   Uses
      At line 79 in file inc\startup_stm32f030.s
      At line 174 in file inc\startup_stm32f030.s

SysTick_Handler 0000002E

Symbol: SysTick_Handler
   Definitions
      At line 181 in file inc\startup_stm32f030.s
   Uses
      At line 83 in file inc\startup_stm32f030.s
      At line 182 in file inc\startup_stm32f030.s

TIM14_IRQHandler 00000030

Symbol: TIM14_IRQHandler
   Definitions
      At line 228 in file inc\startup_stm32f030.s
   Uses
      At line 105 in file inc\startup_stm32f030.s
      At line 202 in file inc\startup_stm32f030.s

TIM15_IRQHandler 00000030

Symbol: TIM15_IRQHandler
   Definitions
      At line 229 in file inc\startup_stm32f030.s
   Uses
      At line 106 in file inc\startup_stm32f030.s
      At line 203 in file inc\startup_stm32f030.s

TIM16_IRQHandler 00000030

Symbol: TIM16_IRQHandler
   Definitions
      At line 230 in file inc\startup_stm32f030.s
   Uses
      At line 107 in file inc\startup_stm32f030.s
      At line 204 in file inc\startup_stm32f030.s

TIM17_IRQHandler 00000030

Symbol: TIM17_IRQHandler
   Definitions
      At line 231 in file inc\startup_stm32f030.s



ARM Macro Assembler    Page 5 Alphabetic symbol ordering
Relocatable symbols

   Uses
      At line 108 in file inc\startup_stm32f030.s
      At line 205 in file inc\startup_stm32f030.s

TIM1_BRK_UP_TRG_COM_IRQHandler 00000030

Symbol: TIM1_BRK_UP_TRG_COM_IRQHandler
   Definitions
      At line 225 in file inc\startup_stm32f030.s
   Uses
      At line 99 in file inc\startup_stm32f030.s
      At line 199 in file inc\startup_stm32f030.s

TIM1_CC_IRQHandler 00000030

Symbol: TIM1_CC_IRQHandler
   Definitions
      At line 226 in file inc\startup_stm32f030.s
   Uses
      At line 100 in file inc\startup_stm32f030.s
      At line 200 in file inc\startup_stm32f030.s

TIM3_IRQHandler 00000030

Symbol: TIM3_IRQHandler
   Definitions
      At line 227 in file inc\startup_stm32f030.s
   Uses
      At line 102 in file inc\startup_stm32f030.s
      At line 201 in file inc\startup_stm32f030.s

USART1_IRQHandler 00000030

Symbol: USART1_IRQHandler
   Definitions
      At line 236 in file inc\startup_stm32f030.s
   Uses
      At line 113 in file inc\startup_stm32f030.s
      At line 210 in file inc\startup_stm32f030.s

USART2_IRQHandler 00000030

Symbol: USART2_IRQHandler
   Definitions
      At line 237 in file inc\startup_stm32f030.s
   Uses
      At line 114 in file inc\startup_stm32f030.s
      At line 211 in file inc\startup_stm32f030.s

WWDG_IRQHandler 00000030

Symbol: WWDG_IRQHandler
   Definitions
      At line 214 in file inc\startup_stm32f030.s
   Uses
      At line 86 in file inc\startup_stm32f030.s
      At line 188 in file inc\startup_stm32f030.s

__user_initial_stackheap 00000034



ARM Macro Assembler    Page 6 Alphabetic symbol ordering
Relocatable symbols


Symbol: __user_initial_stackheap
   Definitions
      At line 259 in file inc\startup_stm32f030.s
   Uses
      At line 257 in file inc\startup_stm32f030.s
Comment: __user_initial_stackheap used once
34 symbols



ARM Macro Assembler    Page 1 Alphabetic symbol ordering
Absolute symbols

Heap_Size 00000400

Symbol: Heap_Size
   Definitions
      At line 51 in file inc\startup_stm32f030.s
   Uses
      At line 55 in file inc\startup_stm32f030.s
      At line 263 in file inc\startup_stm32f030.s

Stack_Size 00000600

Symbol: Stack_Size
   Definitions
      At line 40 in file inc\startup_stm32f030.s
   Uses
      At line 43 in file inc\startup_stm32f030.s
      At line 262 in file inc\startup_stm32f030.s

__Vectors_Size 000000B4

Symbol: __Vectors_Size
   Definitions
      At line 118 in file inc\startup_stm32f030.s
   Uses
      At line 66 in file inc\startup_stm32f030.s
Comment: __Vectors_Size used once
3 symbols



ARM Macro Assembler    Page 1 Alphabetic symbol ordering
External symbols

SystemInit 00000000

Symbol: SystemInit
   Definitions
      At line 126 in file inc\startup_stm32f030.s
   Uses
      At line 156 in file inc\startup_stm32f030.s
Comment: SystemInit used once
__main 00000000

Symbol: __main
   Definitions
      At line 125 in file inc\startup_stm32f030.s
   Uses
      At line 158 in file inc\startup_stm32f030.s
Comment: __main used once
__use_two_region_memory 00000000

Symbol: __use_two_region_memory
   Definitions
      At line 256 in file inc\startup_stm32f030.s
   Uses
      None
Comment: __use_two_region_memory unused
3 symbols
386 symbols in table
